{
  "page": 1,
  "per_page": 20,
  "total": 40,
  "total_pages": 2,
  "data": [
    {
      "id": 1,
      "title": "프론트엔드 추천 자료 모음",
      "content": "사이트 MDN - 가장 유명한 MDN 모던 javascript 튜토리얼 - JS 튜토리얼로 정말 좋음. 타입스크립트 핸드북 - TS 공식문서 번역본 웹팩 핸드북 - 캡틴...",
      "thumbnail": "https://images.unsplash.com/photo-1594010534253-a9bc1905abc7?ixlib=rb-1.2.1&ixid=eyJhcHBfaWQiOjEyMDd9&auto=format&fit=crop&w=722&q=80",
      "author": "Lawson",
      "avatar": "https://s3.amazonaws.com/uifaces/faces/twitter/follettkyle/128.jpg",
      "heart": 50,
      "created_at": "2020-07-03T08:12:49.927+00:00",
      "updated_at": "2020-07-03T08:12:49.927+00:00"
    },
    {
      "id": 2,
      "title": "2020년 상반기. 양질의 기술 아티클 모음",
      "content": "‘카카오 프로젝트100’은 매일 하고 싶었던 일은 100일 동안 꾸준히 하면서 인증을 하는 서비스인데요.저는 하루 한 개, 기술 아티클 읽기를 도전하고...",
      "thumbnail": "https://images.unsplash.com/photo-1594013207941-9cef19ed2c45?ixlib=rb-1.2.1&ixid=eyJhcHBfaWQiOjEyMDd9&auto=format&fit=crop&w=2550&q=80",
      "author": "minsoo",
      "avatar": "https://s3.amazonaws.com/uifaces/faces/twitter/follettkyle/128.jpg",
      "heart": 49,
      "created_at": "2020-07-05T08:12:49.927+00:00",
      "updated_at": "2020-07-03T08:12:49.927+00:00"
    },
    {
      "id": 1,
      "title": "프론트엔드 추천 자료 모음",
      "content": "사이트 MDN - 가장 유명한 MDN 모던 javascript 튜토리얼 - JS 튜토리얼로 정말 좋음. 타입스크립트 핸드북 - TS 공식문서 번역본 웹팩 핸드북 - 캡틴...",
      "thumbnail": "https://images.unsplash.com/photo-1594010534253-a9bc1905abc7?ixlib=rb-1.2.1&ixid=eyJhcHBfaWQiOjEyMDd9&auto=format&fit=crop&w=722&q=80",
      "author": "Lawson",
      "avatar": "https://s3.amazonaws.com/uifaces/faces/twitter/follettkyle/128.jpg",
      "heart": 48,
      "created_at": "2020-07-03T08:12:49.927+00:00",
      "updated_at": "2020-07-03T08:12:49.927+00:00"
    },
    {
      "id": 2,
      "title": "2020년 상반기. 양질의 기술 아티클 모음",
      "content": "‘카카오 프로젝트100’은 매일 하고 싶었던 일은 100일 동안 꾸준히 하면서 인증을 하는 서비스인데요.저는 하루 한 개, 기술 아티클 읽기를 도전하고...",
      "thumbnail": "https://images.unsplash.com/photo-1594013207941-9cef19ed2c45?ixlib=rb-1.2.1&ixid=eyJhcHBfaWQiOjEyMDd9&auto=format&fit=crop&w=2550&q=80",
      "author": "minsoo",
      "avatar": "https://s3.amazonaws.com/uifaces/faces/twitter/follettkyle/128.jpg",
      "heart": 47,
      "created_at": "2020-07-05T08:12:49.927+00:00",
      "updated_at": "2020-07-03T08:12:49.927+00:00"
    },
    {
      "id": 1,
      "title": "프론트엔드 추천 자료 모음",
      "content": "사이트 MDN - 가장 유명한 MDN 모던 javascript 튜토리얼 - JS 튜토리얼로 정말 좋음. 타입스크립트 핸드북 - TS 공식문서 번역본 웹팩 핸드북 - 캡틴...",
      "thumbnail": "https://images.unsplash.com/photo-1594010534253-a9bc1905abc7?ixlib=rb-1.2.1&ixid=eyJhcHBfaWQiOjEyMDd9&auto=format&fit=crop&w=722&q=80",
      "author": "Lawson",
      "avatar": "https://s3.amazonaws.com/uifaces/faces/twitter/follettkyle/128.jpg",
      "heart": 46,
      "created_at": "2020-07-03T08:12:49.927+00:00",
      "updated_at": "2020-07-03T08:12:49.927+00:00"
    },
    {
      "id": 2,
      "title": "2020년 상반기. 양질의 기술 아티클 모음",
      "content": "‘카카오 프로젝트100’은 매일 하고 싶었던 일은 100일 동안 꾸준히 하면서 인증을 하는 서비스인데요.저는 하루 한 개, 기술 아티클 읽기를 도전하고...",
      "thumbnail": "https://images.unsplash.com/photo-1594013207941-9cef19ed2c45?ixlib=rb-1.2.1&ixid=eyJhcHBfaWQiOjEyMDd9&auto=format&fit=crop&w=2550&q=80",
      "author": "minsoo",
      "avatar": "https://s3.amazonaws.com/uifaces/faces/twitter/follettkyle/128.jpg",
      "heart": 45,
      "created_at": "2020-07-05T08:12:49.927+00:00",
      "updated_at": "2020-07-03T08:12:49.927+00:00"
    },
    {
      "id": 1,
      "title": "프론트엔드 추천 자료 모음",
      "content": "사이트 MDN - 가장 유명한 MDN 모던 javascript 튜토리얼 - JS 튜토리얼로 정말 좋음. 타입스크립트 핸드북 - TS 공식문서 번역본 웹팩 핸드북 - 캡틴...",
      "thumbnail": "https://images.unsplash.com/photo-1594010534253-a9bc1905abc7?ixlib=rb-1.2.1&ixid=eyJhcHBfaWQiOjEyMDd9&auto=format&fit=crop&w=722&q=80",
      "author": "Lawson",
      "avatar": "https://s3.amazonaws.com/uifaces/faces/twitter/follettkyle/128.jpg",
      "heart": 44,
      "created_at": "2020-07-03T08:12:49.927+00:00",
      "updated_at": "2020-07-03T08:12:49.927+00:00"
    },
    {
      "id": 2,
      "title": "2020년 상반기. 양질의 기술 아티클 모음",
      "content": "‘카카오 프로젝트100’은 매일 하고 싶었던 일은 100일 동안 꾸준히 하면서 인증을 하는 서비스인데요.저는 하루 한 개, 기술 아티클 읽기를 도전하고...",
      "thumbnail": "https://images.unsplash.com/photo-1594013207941-9cef19ed2c45?ixlib=rb-1.2.1&ixid=eyJhcHBfaWQiOjEyMDd9&auto=format&fit=crop&w=2550&q=80",
      "author": "minsoo",
      "avatar": "https://s3.amazonaws.com/uifaces/faces/twitter/follettkyle/128.jpg",
      "heart": 43,
      "created_at": "2020-07-05T08:12:49.927+00:00",
      "updated_at": "2020-07-03T08:12:49.927+00:00"
    },
    {
      "id": 1,
      "title": "프론트엔드 추천 자료 모음",
      "content": "사이트 MDN - 가장 유명한 MDN 모던 javascript 튜토리얼 - JS 튜토리얼로 정말 좋음. 타입스크립트 핸드북 - TS 공식문서 번역본 웹팩 핸드북 - 캡틴...",
      "thumbnail": "https://images.unsplash.com/photo-1594010534253-a9bc1905abc7?ixlib=rb-1.2.1&ixid=eyJhcHBfaWQiOjEyMDd9&auto=format&fit=crop&w=722&q=80",
      "author": "Lawson",
      "avatar": "https://s3.amazonaws.com/uifaces/faces/twitter/follettkyle/128.jpg",
      "heart": 42,
      "created_at": "2020-07-03T08:12:49.927+00:00",
      "updated_at": "2020-07-03T08:12:49.927+00:00"
    },
    {
      "id": 2,
      "title": "2020년 상반기. 양질의 기술 아티클 모음",
      "content": "‘카카오 프로젝트100’은 매일 하고 싶었던 일은 100일 동안 꾸준히 하면서 인증을 하는 서비스인데요.저는 하루 한 개, 기술 아티클 읽기를 도전하고...",
      "thumbnail": "https://images.unsplash.com/photo-1594013207941-9cef19ed2c45?ixlib=rb-1.2.1&ixid=eyJhcHBfaWQiOjEyMDd9&auto=format&fit=crop&w=2550&q=80",
      "author": "minsoo",
      "avatar": "https://s3.amazonaws.com/uifaces/faces/twitter/follettkyle/128.jpg",
      "heart": 41,
      "created_at": "2020-07-05T08:12:49.927+00:00",
      "updated_at": "2020-07-03T08:12:49.927+00:00"
    },
    {
      "id": 1,
      "title": "프론트엔드 추천 자료 모음",
      "content": "사이트 MDN - 가장 유명한 MDN 모던 javascript 튜토리얼 - JS 튜토리얼로 정말 좋음. 타입스크립트 핸드북 - TS 공식문서 번역본 웹팩 핸드북 - 캡틴...",
      "thumbnail": "https://images.unsplash.com/photo-1594010534253-a9bc1905abc7?ixlib=rb-1.2.1&ixid=eyJhcHBfaWQiOjEyMDd9&auto=format&fit=crop&w=722&q=80",
      "author": "Lawson",
      "avatar": "https://s3.amazonaws.com/uifaces/faces/twitter/follettkyle/128.jpg",
      "heart": 40,
      "created_at": "2020-07-03T08:12:49.927+00:00",
      "updated_at": "2020-07-03T08:12:49.927+00:00"
    },
    {
      "id": 2,
      "title": "2020년 상반기. 양질의 기술 아티클 모음",
      "content": "‘카카오 프로젝트100’은 매일 하고 싶었던 일은 100일 동안 꾸준히 하면서 인증을 하는 서비스인데요.저는 하루 한 개, 기술 아티클 읽기를 도전하고...",
      "thumbnail": "https://images.unsplash.com/photo-1594013207941-9cef19ed2c45?ixlib=rb-1.2.1&ixid=eyJhcHBfaWQiOjEyMDd9&auto=format&fit=crop&w=2550&q=80",
      "author": "minsoo",
      "avatar": "https://s3.amazonaws.com/uifaces/faces/twitter/follettkyle/128.jpg",
      "heart": 39,
      "created_at": "2020-07-05T08:12:49.927+00:00",
      "updated_at": "2020-07-03T08:12:49.927+00:00"
    },
    {
      "id": 1,
      "title": "프론트엔드 추천 자료 모음",
      "content": "사이트 MDN - 가장 유명한 MDN 모던 javascript 튜토리얼 - JS 튜토리얼로 정말 좋음. 타입스크립트 핸드북 - TS 공식문서 번역본 웹팩 핸드북 - 캡틴...",
      "thumbnail": "https://images.unsplash.com/photo-1594010534253-a9bc1905abc7?ixlib=rb-1.2.1&ixid=eyJhcHBfaWQiOjEyMDd9&auto=format&fit=crop&w=722&q=80",
      "author": "Lawson",
      "avatar": "https://s3.amazonaws.com/uifaces/faces/twitter/follettkyle/128.jpg",
      "heart": 38,
      "created_at": "2020-07-03T08:12:49.927+00:00",
      "updated_at": "2020-07-03T08:12:49.927+00:00"
    },
    {
      "id": 2,
      "title": "2020년 상반기. 양질의 기술 아티클 모음",
      "content": "‘카카오 프로젝트100’은 매일 하고 싶었던 일은 100일 동안 꾸준히 하면서 인증을 하는 서비스인데요.저는 하루 한 개, 기술 아티클 읽기를 도전하고...",
      "thumbnail": "https://images.unsplash.com/photo-1594013207941-9cef19ed2c45?ixlib=rb-1.2.1&ixid=eyJhcHBfaWQiOjEyMDd9&auto=format&fit=crop&w=2550&q=80",
      "author": "minsoo",
      "avatar": "https://s3.amazonaws.com/uifaces/faces/twitter/follettkyle/128.jpg",
      "heart": 37,
      "created_at": "2020-07-05T08:12:49.927+00:00",
      "updated_at": "2020-07-03T08:12:49.927+00:00"
    },
    {
      "id": 1,
      "title": "프론트엔드 추천 자료 모음",
      "content": "사이트 MDN - 가장 유명한 MDN 모던 javascript 튜토리얼 - JS 튜토리얼로 정말 좋음. 타입스크립트 핸드북 - TS 공식문서 번역본 웹팩 핸드북 - 캡틴...",
      "thumbnail": "https://images.unsplash.com/photo-1594010534253-a9bc1905abc7?ixlib=rb-1.2.1&ixid=eyJhcHBfaWQiOjEyMDd9&auto=format&fit=crop&w=722&q=80",
      "author": "Lawson",
      "avatar": "https://s3.amazonaws.com/uifaces/faces/twitter/follettkyle/128.jpg",
      "heart": 36,
      "created_at": "2020-07-03T08:12:49.927+00:00",
      "updated_at": "2020-07-03T08:12:49.927+00:00"
    },
    {
      "id": 2,
      "title": "2020년 상반기. 양질의 기술 아티클 모음",
      "content": "‘카카오 프로젝트100’은 매일 하고 싶었던 일은 100일 동안 꾸준히 하면서 인증을 하는 서비스인데요.저는 하루 한 개, 기술 아티클 읽기를 도전하고...",
      "thumbnail": "https://images.unsplash.com/photo-1594013207941-9cef19ed2c45?ixlib=rb-1.2.1&ixid=eyJhcHBfaWQiOjEyMDd9&auto=format&fit=crop&w=2550&q=80",
      "author": "minsoo",
      "avatar": "https://s3.amazonaws.com/uifaces/faces/twitter/follettkyle/128.jpg",
      "heart": 35,
      "created_at": "2020-07-05T08:12:49.927+00:00",
      "updated_at": "2020-07-03T08:12:49.927+00:00"
    },
    {
      "id": 1,
      "title": "프론트엔드 추천 자료 모음",
      "content": "사이트 MDN - 가장 유명한 MDN 모던 javascript 튜토리얼 - JS 튜토리얼로 정말 좋음. 타입스크립트 핸드북 - TS 공식문서 번역본 웹팩 핸드북 - 캡틴...",
      "thumbnail": "https://images.unsplash.com/photo-1594010534253-a9bc1905abc7?ixlib=rb-1.2.1&ixid=eyJhcHBfaWQiOjEyMDd9&auto=format&fit=crop&w=722&q=80",
      "author": "Lawson",
      "avatar": "https://s3.amazonaws.com/uifaces/faces/twitter/follettkyle/128.jpg",
      "heart": 34,
      "created_at": "2020-07-03T08:12:49.927+00:00",
      "updated_at": "2020-07-03T08:12:49.927+00:00"
    },
    {
      "id": 2,
      "title": "2020년 상반기. 양질의 기술 아티클 모음",
      "content": "‘카카오 프로젝트100’은 매일 하고 싶었던 일은 100일 동안 꾸준히 하면서 인증을 하는 서비스인데요.저는 하루 한 개, 기술 아티클 읽기를 도전하고...",
      "thumbnail": "https://images.unsplash.com/photo-1594013207941-9cef19ed2c45?ixlib=rb-1.2.1&ixid=eyJhcHBfaWQiOjEyMDd9&auto=format&fit=crop&w=2550&q=80",
      "author": "minsoo",
      "avatar": "https://s3.amazonaws.com/uifaces/faces/twitter/follettkyle/128.jpg",
      "heart": 33,
      "created_at": "2020-07-05T08:12:49.927+00:00",
      "updated_at": "2020-07-03T08:12:49.927+00:00"
    },
    {
      "id": 1,
      "title": "프론트엔드 추천 자료 모음",
      "content": "사이트 MDN - 가장 유명한 MDN 모던 javascript 튜토리얼 - JS 튜토리얼로 정말 좋음. 타입스크립트 핸드북 - TS 공식문서 번역본 웹팩 핸드북 - 캡틴...",
      "thumbnail": "https://images.unsplash.com/photo-1594010534253-a9bc1905abc7?ixlib=rb-1.2.1&ixid=eyJhcHBfaWQiOjEyMDd9&auto=format&fit=crop&w=722&q=80",
      "author": "Lawson",
      "avatar": "https://s3.amazonaws.com/uifaces/faces/twitter/follettkyle/128.jpg",
      "heart": 32,
      "created_at": "2020-07-03T08:12:49.927+00:00",
      "updated_at": "2020-07-03T08:12:49.927+00:00"
    },
    {
      "id": 2,
      "title": "2020년 상반기. 양질의 기술 아티클 모음",
      "content": "‘카카오 프로젝트100’은 매일 하고 싶었던 일은 100일 동안 꾸준히 하면서 인증을 하는 서비스인데요.저는 하루 한 개, 기술 아티클 읽기를 도전하고...",
      "thumbnail": "https://images.unsplash.com/photo-1594013207941-9cef19ed2c45?ixlib=rb-1.2.1&ixid=eyJhcHBfaWQiOjEyMDd9&auto=format&fit=crop&w=2550&q=80",
      "author": "minsoo",
      "avatar": "https://s3.amazonaws.com/uifaces/faces/twitter/follettkyle/128.jpg",
      "heart": 31,
      "created_at": "2020-07-05T08:12:49.927+00:00",
      "updated_at": "2020-07-03T08:12:49.927+00:00"
    }
  ]
}
