{
  "page": 1,
  "per_page": 20,
  "total": 40,
  "total_pages": 2,
  "data": [
    {
      "id": 1,
      "title": "프론트엔드 추천 자료 모음",
      "content": "사이트 MDN - 가장 유명한 MDN 모던 javascript 튜토리얼 - JS 튜토리얼로 정말 좋음. 타입스크립트 핸드북 - TS 공식문서 번역본 웹팩 핸드북 - 캡틴...",
      "thumbnail": "https://images.unsplash.com/photo-1594010534253-a9bc1905abc7?ixlib=rb-1.2.1&ixid=eyJhcHBfaWQiOjEyMDd9&auto=format&fit=crop&w=722&q=80",
      "author": "Lawson",
      "avatar": "https://s3.amazonaws.com/uifaces/faces/twitter/follettkyle/128.jpg",
      "heart": 30,
      "created_at": "2020-07-03T08:12:49.927+00:00",
      "updated_at": "2020-07-03T08:12:49.927+00:00",
      "tags": ["JavaScript", "프론트엔드", "ux", "그리드 뷰", "블로그", "디자인", "A B 테스트", "마이크로서비스", "밋업", "백엔드", "후기", "행사"]
    },
    {
      "id": 2,
      "title": "2020년 상반기. 양질의 기술 아티클 모음",
      "content": "‘카카오 프로젝트100’은 매일 하고 싶었던 일은 100일 동안 꾸준히 하면서 인증을 하는 서비스인데요.저는 하루 한 개, 기술 아티클 읽기를 도전하고...",
      "thumbnail": "https://images.unsplash.com/photo-1594013207941-9cef19ed2c45?ixlib=rb-1.2.1&ixid=eyJhcHBfaWQiOjEyMDd9&auto=format&fit=crop&w=2550&q=80",
      "author": "minsoo",
      "avatar": "https://s3.amazonaws.com/uifaces/faces/twitter/follettkyle/128.jpg",
      "heart": 29,
      "created_at": "2020-07-05T08:12:49.927+00:00",
      "updated_at": "2020-07-03T08:12:49.927+00:00",
      "tags": ["블로그", "디자인", "A B 테스트", "마이크로서비스", "밋업", "백엔드", "후기", "행사"]
    },
    {
      "id": 1,
      "title": "프론트엔드 추천 자료 모음",
      "content": "사이트 MDN - 가장 유명한 MDN 모던 javascript 튜토리얼 - JS 튜토리얼로 정말 좋음. 타입스크립트 핸드북 - TS 공식문서 번역본 웹팩 핸드북 - 캡틴...",
      "thumbnail": "https://images.unsplash.com/photo-1594010534253-a9bc1905abc7?ixlib=rb-1.2.1&ixid=eyJhcHBfaWQiOjEyMDd9&auto=format&fit=crop&w=722&q=80",
      "author": "Lawson",
      "avatar": "https://s3.amazonaws.com/uifaces/faces/twitter/follettkyle/128.jpg",
      "heart": 28,
      "created_at": "2020-07-03T08:12:49.927+00:00",
      "updated_at": "2020-07-03T08:12:49.927+00:00",
      "tags": ["블로그", "디자인", "A B 테스트", "마이크로서비스", "밋업", "백엔드", "후기", "행사"]
    },
    {
      "id": 2,
      "title": "2020년 상반기. 양질의 기술 아티클 모음",
      "content": "‘카카오 프로젝트100’은 매일 하고 싶었던 일은 100일 동안 꾸준히 하면서 인증을 하는 서비스인데요.저는 하루 한 개, 기술 아티클 읽기를 도전하고...",
      "thumbnail": "https://images.unsplash.com/photo-1594013207941-9cef19ed2c45?ixlib=rb-1.2.1&ixid=eyJhcHBfaWQiOjEyMDd9&auto=format&fit=crop&w=2550&q=80",
      "author": "minsoo",
      "avatar": "https://s3.amazonaws.com/uifaces/faces/twitter/follettkyle/128.jpg",
      "heart": 27,
      "created_at": "2020-07-05T08:12:49.927+00:00",
      "updated_at": "2020-07-03T08:12:49.927+00:00",
      "tags": ["블로그", "디자인", "A B 테스트", "마이크로서비스", "밋업", "백엔드", "후기", "행사"]
    },
    {
      "id": 1,
      "title": "프론트엔드 추천 자료 모음",
      "content": "사이트 MDN - 가장 유명한 MDN 모던 javascript 튜토리얼 - JS 튜토리얼로 정말 좋음. 타입스크립트 핸드북 - TS 공식문서 번역본 웹팩 핸드북 - 캡틴...",
      "thumbnail": "https://images.unsplash.com/photo-1594010534253-a9bc1905abc7?ixlib=rb-1.2.1&ixid=eyJhcHBfaWQiOjEyMDd9&auto=format&fit=crop&w=722&q=80",
      "author": "Lawson",
      "avatar": "https://s3.amazonaws.com/uifaces/faces/twitter/follettkyle/128.jpg",
      "heart": 26,
      "created_at": "2020-07-03T08:12:49.927+00:00",
      "updated_at": "2020-07-03T08:12:49.927+00:00"
    },
    {
      "id": 2,
      "title": "2020년 상반기. 양질의 기술 아티클 모음",
      "content": "‘카카오 프로젝트100’은 매일 하고 싶었던 일은 100일 동안 꾸준히 하면서 인증을 하는 서비스인데요.저는 하루 한 개, 기술 아티클 읽기를 도전하고...",
      "thumbnail": "https://images.unsplash.com/photo-1594013207941-9cef19ed2c45?ixlib=rb-1.2.1&ixid=eyJhcHBfaWQiOjEyMDd9&auto=format&fit=crop&w=2550&q=80",
      "author": "minsoo",
      "avatar": "https://s3.amazonaws.com/uifaces/faces/twitter/follettkyle/128.jpg",
      "heart": 25,
      "created_at": "2020-07-05T08:12:49.927+00:00",
      "updated_at": "2020-07-03T08:12:49.927+00:00"
    },
    {
      "id": 1,
      "title": "프론트엔드 추천 자료 모음",
      "content": "사이트 MDN - 가장 유명한 MDN 모던 javascript 튜토리얼 - JS 튜토리얼로 정말 좋음. 타입스크립트 핸드북 - TS 공식문서 번역본 웹팩 핸드북 - 캡틴...",
      "thumbnail": "https://images.unsplash.com/photo-1594010534253-a9bc1905abc7?ixlib=rb-1.2.1&ixid=eyJhcHBfaWQiOjEyMDd9&auto=format&fit=crop&w=722&q=80",
      "author": "Lawson",
      "avatar": "https://s3.amazonaws.com/uifaces/faces/twitter/follettkyle/128.jpg",
      "heart": 24,
      "created_at": "2020-07-03T08:12:49.927+00:00",
      "updated_at": "2020-07-03T08:12:49.927+00:00"
    },
    {
      "id": 2,
      "title": "2020년 상반기. 양질의 기술 아티클 모음",
      "content": "‘카카오 프로젝트100’은 매일 하고 싶었던 일은 100일 동안 꾸준히 하면서 인증을 하는 서비스인데요.저는 하루 한 개, 기술 아티클 읽기를 도전하고...",
      "thumbnail": "https://images.unsplash.com/photo-1594013207941-9cef19ed2c45?ixlib=rb-1.2.1&ixid=eyJhcHBfaWQiOjEyMDd9&auto=format&fit=crop&w=2550&q=80",
      "author": "minsoo",
      "avatar": "https://s3.amazonaws.com/uifaces/faces/twitter/follettkyle/128.jpg",
      "heart": 23,
      "created_at": "2020-07-05T08:12:49.927+00:00",
      "updated_at": "2020-07-03T08:12:49.927+00:00"
    },
    {
      "id": 1,
      "title": "프론트엔드 추천 자료 모음",
      "content": "사이트 MDN - 가장 유명한 MDN 모던 javascript 튜토리얼 - JS 튜토리얼로 정말 좋음. 타입스크립트 핸드북 - TS 공식문서 번역본 웹팩 핸드북 - 캡틴...",
      "thumbnail": "https://images.unsplash.com/photo-1594010534253-a9bc1905abc7?ixlib=rb-1.2.1&ixid=eyJhcHBfaWQiOjEyMDd9&auto=format&fit=crop&w=722&q=80",
      "author": "Lawson",
      "avatar": "https://s3.amazonaws.com/uifaces/faces/twitter/follettkyle/128.jpg",
      "heart": 22,
      "created_at": "2020-07-03T08:12:49.927+00:00",
      "updated_at": "2020-07-03T08:12:49.927+00:00"
    },
    {
      "id": 2,
      "title": "2020년 상반기. 양질의 기술 아티클 모음",
      "content": "‘카카오 프로젝트100’은 매일 하고 싶었던 일은 100일 동안 꾸준히 하면서 인증을 하는 서비스인데요.저는 하루 한 개, 기술 아티클 읽기를 도전하고...",
      "thumbnail": "https://images.unsplash.com/photo-1594013207941-9cef19ed2c45?ixlib=rb-1.2.1&ixid=eyJhcHBfaWQiOjEyMDd9&auto=format&fit=crop&w=2550&q=80",
      "author": "minsoo",
      "avatar": "https://s3.amazonaws.com/uifaces/faces/twitter/follettkyle/128.jpg",
      "heart": 21,
      "created_at": "2020-07-05T08:12:49.927+00:00",
      "updated_at": "2020-07-03T08:12:49.927+00:00"
    },
    {
      "id": 1,
      "title": "프론트엔드 추천 자료 모음",
      "content": "사이트 MDN - 가장 유명한 MDN 모던 javascript 튜토리얼 - JS 튜토리얼로 정말 좋음. 타입스크립트 핸드북 - TS 공식문서 번역본 웹팩 핸드북 - 캡틴...",
      "thumbnail": "https://images.unsplash.com/photo-1594010534253-a9bc1905abc7?ixlib=rb-1.2.1&ixid=eyJhcHBfaWQiOjEyMDd9&auto=format&fit=crop&w=722&q=80",
      "author": "Lawson",
      "avatar": "https://s3.amazonaws.com/uifaces/faces/twitter/follettkyle/128.jpg",
      "heart": 20,
      "created_at": "2020-07-03T08:12:49.927+00:00",
      "updated_at": "2020-07-03T08:12:49.927+00:00"
    },
    {
      "id": 2,
      "title": "2020년 상반기. 양질의 기술 아티클 모음",
      "content": "‘카카오 프로젝트100’은 매일 하고 싶었던 일은 100일 동안 꾸준히 하면서 인증을 하는 서비스인데요.저는 하루 한 개, 기술 아티클 읽기를 도전하고...",
      "thumbnail": "https://images.unsplash.com/photo-1594013207941-9cef19ed2c45?ixlib=rb-1.2.1&ixid=eyJhcHBfaWQiOjEyMDd9&auto=format&fit=crop&w=2550&q=80",
      "author": "minsoo",
      "avatar": "https://s3.amazonaws.com/uifaces/faces/twitter/follettkyle/128.jpg",
      "heart": 19,
      "created_at": "2020-07-05T08:12:49.927+00:00",
      "updated_at": "2020-07-03T08:12:49.927+00:00"
    },
    {
      "id": 1,
      "title": "프론트엔드 추천 자료 모음",
      "content": "사이트 MDN - 가장 유명한 MDN 모던 javascript 튜토리얼 - JS 튜토리얼로 정말 좋음. 타입스크립트 핸드북 - TS 공식문서 번역본 웹팩 핸드북 - 캡틴...",
      "thumbnail": "https://images.unsplash.com/photo-1594010534253-a9bc1905abc7?ixlib=rb-1.2.1&ixid=eyJhcHBfaWQiOjEyMDd9&auto=format&fit=crop&w=722&q=80",
      "author": "Lawson",
      "avatar": "https://s3.amazonaws.com/uifaces/faces/twitter/follettkyle/128.jpg",
      "heart": 18,
      "created_at": "2020-07-03T08:12:49.927+00:00",
      "updated_at": "2020-07-03T08:12:49.927+00:00"
    },
    {
      "id": 2,
      "title": "2020년 상반기. 양질의 기술 아티클 모음",
      "content": "‘카카오 프로젝트100’은 매일 하고 싶었던 일은 100일 동안 꾸준히 하면서 인증을 하는 서비스인데요.저는 하루 한 개, 기술 아티클 읽기를 도전하고...",
      "thumbnail": "https://images.unsplash.com/photo-1594013207941-9cef19ed2c45?ixlib=rb-1.2.1&ixid=eyJhcHBfaWQiOjEyMDd9&auto=format&fit=crop&w=2550&q=80",
      "author": "minsoo",
      "avatar": "https://s3.amazonaws.com/uifaces/faces/twitter/follettkyle/128.jpg",
      "heart": 17,
      "created_at": "2020-07-05T08:12:49.927+00:00",
      "updated_at": "2020-07-03T08:12:49.927+00:00"
    },
    {
      "id": 1,
      "title": "프론트엔드 추천 자료 모음",
      "content": "사이트 MDN - 가장 유명한 MDN 모던 javascript 튜토리얼 - JS 튜토리얼로 정말 좋음. 타입스크립트 핸드북 - TS 공식문서 번역본 웹팩 핸드북 - 캡틴...",
      "thumbnail": "https://images.unsplash.com/photo-1594010534253-a9bc1905abc7?ixlib=rb-1.2.1&ixid=eyJhcHBfaWQiOjEyMDd9&auto=format&fit=crop&w=722&q=80",
      "author": "Lawson",
      "avatar": "https://s3.amazonaws.com/uifaces/faces/twitter/follettkyle/128.jpg",
      "heart": 16,
      "created_at": "2020-07-03T08:12:49.927+00:00",
      "updated_at": "2020-07-03T08:12:49.927+00:00"
    },
    {
      "id": 2,
      "title": "2020년 상반기. 양질의 기술 아티클 모음",
      "content": "‘카카오 프로젝트100’은 매일 하고 싶었던 일은 100일 동안 꾸준히 하면서 인증을 하는 서비스인데요.저는 하루 한 개, 기술 아티클 읽기를 도전하고...",
      "thumbnail": "https://images.unsplash.com/photo-1594013207941-9cef19ed2c45?ixlib=rb-1.2.1&ixid=eyJhcHBfaWQiOjEyMDd9&auto=format&fit=crop&w=2550&q=80",
      "author": "minsoo",
      "avatar": "https://s3.amazonaws.com/uifaces/faces/twitter/follettkyle/128.jpg",
      "heart": 15,
      "created_at": "2020-07-05T08:12:49.927+00:00",
      "updated_at": "2020-07-03T08:12:49.927+00:00"
    },
    {
      "id": 1,
      "title": "프론트엔드 추천 자료 모음",
      "content": "사이트 MDN - 가장 유명한 MDN 모던 javascript 튜토리얼 - JS 튜토리얼로 정말 좋음. 타입스크립트 핸드북 - TS 공식문서 번역본 웹팩 핸드북 - 캡틴...",
      "thumbnail": "https://images.unsplash.com/photo-1594010534253-a9bc1905abc7?ixlib=rb-1.2.1&ixid=eyJhcHBfaWQiOjEyMDd9&auto=format&fit=crop&w=722&q=80",
      "author": "Lawson",
      "avatar": "https://s3.amazonaws.com/uifaces/faces/twitter/follettkyle/128.jpg",
      "heart": 14,
      "created_at": "2020-07-03T08:12:49.927+00:00",
      "updated_at": "2020-07-03T08:12:49.927+00:00"
    },
    {
      "id": 2,
      "title": "2020년 상반기. 양질의 기술 아티클 모음",
      "content": "‘카카오 프로젝트100’은 매일 하고 싶었던 일은 100일 동안 꾸준히 하면서 인증을 하는 서비스인데요.저는 하루 한 개, 기술 아티클 읽기를 도전하고...",
      "thumbnail": "https://images.unsplash.com/photo-1594013207941-9cef19ed2c45?ixlib=rb-1.2.1&ixid=eyJhcHBfaWQiOjEyMDd9&auto=format&fit=crop&w=2550&q=80",
      "author": "minsoo",
      "avatar": "https://s3.amazonaws.com/uifaces/faces/twitter/follettkyle/128.jpg",
      "heart": 13,
      "created_at": "2020-07-05T08:12:49.927+00:00",
      "updated_at": "2020-07-03T08:12:49.927+00:00"
    },
    {
      "id": 1,
      "title": "프론트엔드 추천 자료 모음",
      "content": "사이트 MDN - 가장 유명한 MDN 모던 javascript 튜토리얼 - JS 튜토리얼로 정말 좋음. 타입스크립트 핸드북 - TS 공식문서 번역본 웹팩 핸드북 - 캡틴...",
      "thumbnail": "https://images.unsplash.com/photo-1594010534253-a9bc1905abc7?ixlib=rb-1.2.1&ixid=eyJhcHBfaWQiOjEyMDd9&auto=format&fit=crop&w=722&q=80",
      "author": "Lawson",
      "avatar": "https://s3.amazonaws.com/uifaces/faces/twitter/follettkyle/128.jpg",
      "heart": 12,
      "created_at": "2020-07-03T08:12:49.927+00:00",
      "updated_at": "2020-07-03T08:12:49.927+00:00"
    },
    {
      "id": 2,
      "title": "2020년 상반기. 양질의 기술 아티클 모음",
      "content": "‘카카오 프로젝트100’은 매일 하고 싶었던 일은 100일 동안 꾸준히 하면서 인증을 하는 서비스인데요.저는 하루 한 개, 기술 아티클 읽기를 도전하고...",
      "thumbnail": "https://images.unsplash.com/photo-1594013207941-9cef19ed2c45?ixlib=rb-1.2.1&ixid=eyJhcHBfaWQiOjEyMDd9&auto=format&fit=crop&w=2550&q=80",
      "author": "minsoo",
      "avatar": "https://s3.amazonaws.com/uifaces/faces/twitter/follettkyle/128.jpg",
      "heart": 11,
      "created_at": "2020-07-05T08:12:49.927+00:00",
      "updated_at": "2020-07-03T08:12:49.927+00:00"
    }
  ]
}
