{
  "page": 1,
  "per_page": 20,
  "total": 40,
  "total_pages": 2,
  "data": [
    {
      "id": 2,
      "title": "2020년 상반기. 양질의 기술 아티클 모음",
      "content": "‘카카오 프로젝트100’은 매일 하고 싶었던 일은 100일 동안 꾸준히 하면서 인증을 하는 서비스인데요.저는 하루 한 개, 기술 아티클 읽기를 도전하고...",
      "thumbnail": "https://images.unsplash.com/photo-1594013207941-9cef19ed2c45?ixlib=rb-1.2.1&ixid=eyJhcHBfaWQiOjEyMDd9&auto=format&fit=crop&w=2550&q=80",
      "author": "minsoo",
      "avatar": "https://s3.amazonaws.com/uifaces/faces/twitter/follettkyle/128.jpg",
      "heart": 29,
      "created_at": "2020-07-05T08:12:49.927+00:00",
      "updated_at": "2020-07-03T08:12:49.927+00:00",
      "tags": ["블로그", "디자인", "A B 테스트", "마이크로서비스", "밋업", "백엔드", "후기", "행사"]
    }
  ]
}
